Financial Credit Analysis Prediction Of The Pertaining User’s Loan Report
…
emp_length : Duration of employment

home_ownership : Type of ownership of house

annual_inc : Total annual income

term : 36-month or 60-month period

# Select only the columns mentioned above.
loan = loan %>%
        select(loan_status , loan_amnt , int_rate , grade , emp_length , home_ownership , 
               annual_inc , term)
loan

## # A tibble: 2,260,668 x 8
##    loan_status loan_amnt int_rate grade emp_length home_ownership
##    <chr>           <dbl>    <dbl> <chr> <chr>      <chr>         
##  1 Current          2500     13.6 C     10+ years  RENT          
##  2 Current         30000     18.9 D     10+ years  MORTGAGE      
##  3 Current          5000     18.0 D     6 years    MORTGAGE      
##  4 Current          4000     18.9 D     10+ years  MORTGAGE      
##  5 Current         30000     16.1 C     10+ years  MORTGAGE      
##  6 Current          5550     15.0 C     10+ years  MORTGAGE      
##  7 Current          2000     18.0 D     4 years    RENT          
##  8 Current          6000     13.6 C     10+ years  RENT          
##  9 Current          5000     18.0 D     10+ years  MORTGAGE      
## 10 Current          6000     14.5 C     < 1 year   OWN           
## # ... with 2,260,658 more rows, and 2 more variables: annual_inc <dbl>,
## #   term <chr>
…
